7

C	0	0	0.643049
C	-0.491324	-1.201122	0.656911
C	0.491324	1.201122	0.656911
Cl	0.103974	-2.497081	-0.373086
Cl	-0.103974	2.497081	-0.373086
H	-1.305349	-1.518312	1.295081
H	1.305349	1.518312	1.295081
