! Basis = 5-21G

a 1
! HYDROGEN       (3s) -> [2s]
! s functions
H    3    2
      0.5447178000E+01       0.1562849787E+00       0.00000000
      0.8245472400E+00       0.9046908767E+00       0.00000000
      0.1831915800E+00       0.00000000             1.0000000
a 2
! HELIUM       (3s) -> [2s]
! s functions
H    3    2
      0.1362670000E+02       0.1752298718E+00       0.00000000
      0.1999350000E+01       0.8934823465E+00       0.00000000
      0.3829930000E+00       0.00000000             1.0000000
a 3
! LITHIUM       (8s,3p) -> [3s,2p]
! s functions
H    8    3
      0.2753944440E+03       0.6121846910E-02       0.00000000             0.00000000
      0.4143517540E+02       0.4511296150E-01       0.00000000             0.00000000
      0.9366993780E+01       0.1926941500E+00       0.00000000             0.00000000
      0.2537725330E+01       0.4685442080E+00       0.00000000             0.00000000
      0.7466365400E+00       0.4406075150E+00       0.00000000             0.00000000
      0.7345642606E+00       0.00000000            -0.2525367958E+00       0.00000000
      0.8719796405E-01       0.00000000             0.1097340795E+01       0.00000000
      0.4043865741E-01       0.00000000             0.00000000             0.1000000000E+01
! p functions
H    3    2
      0.7345642606E+00       0.1435917321E+00       0.00000000
      0.8719796405E-01       0.9478030506E+00       0.00000000
      0.4043865741E-01       0.00000000             0.1000000000E+01
a 4
! BERYLLIUM       (8s,3p) -> [3s,2p]
! s functions
H    8    3
      0.5540100000E+03       0.5409974372E-02       0.00000000             0.00000000
      0.8326310000E+02       0.4025153253E-01       0.00000000             0.00000000
      0.1886350000E+02       0.1768581429E+00       0.00000000             0.00000000
      0.5177820000E+01       0.4525593657E+00       0.00000000             0.00000000
      0.1556020000E+01       0.4702933800E+00       0.00000000             0.00000000
      0.1441752491E+01       0.00000000            -0.4774290516E+00       0.00000000
      0.3018610597E+00       0.00000000             0.1247450135E+01       0.00000000
      0.1009613875E+00       0.00000000             0.00000000             0.1000000000E+01
! p functions
H    3    2
      0.1441752491E+01       0.2011418992E+00       0.00000000
      0.3018610597E+00       0.8844825569E+00       0.00000000
      0.1009613875E+00       0.00000000             0.1000000000E+01
