22

C	0.742763	0	0
C	-0.742763	0	0
C	-1.463859	-0.416436	1.128678
C	1.463859	0.416436	1.128678
C	-1.463859	0.416436	-1.128678
C	1.463859	-0.416436	-1.128678
C	-2.855509	-0.41652	1.128906
C	-2.855509	0.41652	-1.128906
C	2.855509	0.41652	1.128906
C	2.855509	-0.41652	-1.128906
C	-3.557895	0	0
C	3.557895	0	0
H	-4.64201	0	0
H	4.64201	0	0
H	-0.927958	-0.766599	2.003654
H	-0.927958	0.766599	-2.003654
H	0.927958	0.766599	2.003655
H	0.927958	-0.766599	-2.003655
H	-3.392147	-0.750878	2.009991
H	-3.392147	0.750878	-2.009991
H	3.392147	0.750878	2.009992
H	3.392147	-0.750878	-2.009992
