84

C	2.281654	0.726635	2.58586
C	3.00829	1.17572	1.41014
C	3.457375	0	0.683505
C	2.281654	-0.726635	2.58586
C	3.00829	-1.17572	1.41014
C	1.17572	1.41014	3.00829
C	0	0.683505	3.457375
C	-1.17572	1.41014	3.00829
C	0.726635	2.58586	2.281654
C	-0.726635	2.58586	2.281654
C	2.58586	2.281654	0.726635
C	1.41014	3.00829	1.17572
C	0.683505	3.457375	0
C	2.58586	2.281654	-0.726635
C	1.41014	3.00829	-1.17572
C	3.457375	0	-0.683505
C	3.00829	1.17572	-1.41014
C	2.281654	0.726635	-2.58586
C	3.00829	-1.17572	-1.41014
C	2.281654	-0.726635	-2.58586
C	1.17572	-1.41014	3.00829
C	0.726635	-2.58586	2.281654
C	-0.726635	-2.58586	2.281654
C	0	-0.683505	3.457375
C	-1.17572	-1.41014	3.00829
C	2.58586	-2.281654	0.726635
C	2.58586	-2.281654	-0.726635
C	1.41014	-3.00829	-1.17572
C	1.41014	-3.00829	1.17572
C	0.683505	-3.457375	0
C	-2.281654	-0.726635	-2.58586
C	-2.281654	0.726635	-2.58586
C	-3.00829	1.17572	-1.41014
C	-3.00829	-1.17572	-1.41014
C	-3.457375	0	-0.683505
C	-1.17572	-1.41014	-3.00829
C	-0.726635	-2.58586	-2.281654
C	0.726635	-2.58586	-2.281654
C	0	-0.683505	-3.457375
C	1.17572	-1.41014	-3.00829
C	-1.17572	1.41014	-3.00829
C	0	0.683505	-3.457375
C	1.17572	1.41014	-3.00829
C	-0.726635	2.58586	-2.281654
C	0.726635	2.58586	-2.281654
C	-2.58586	2.281654	-0.726635
C	-1.41014	3.00829	-1.17572
C	-0.683505	3.457375	0
C	-2.58586	2.281654	0.726635
C	-1.41014	3.00829	1.17572
C	-2.58586	-2.281654	-0.726635
C	-2.58586	-2.281654	0.726635
C	-1.41014	-3.00829	1.17572
C	-1.41014	-3.00829	-1.17572
C	-0.683505	-3.457375	0
C	-3.457375	0	0.683505
C	-3.00829	1.17572	1.41014
C	-2.281654	0.726635	2.58586
C	-3.00829	-1.17572	1.41014
C	-2.281654	-0.726635	2.58586
Br	4.660587	1.821483	2.184657
Br	4.660587	-1.821483	2.184657
Br	1.821483	2.184657	4.660587
Br	-1.821483	2.184657	4.660587
Br	2.184657	4.660587	1.821483
Br	2.184657	4.660587	-1.821483
Br	4.660587	1.821483	-2.184657
Br	4.660587	-1.821483	-2.184657
Br	1.821483	-2.184657	4.660587
Br	-1.821483	-2.184657	4.660587
Br	2.184657	-4.660587	-1.821483
Br	2.184657	-4.660587	1.821483
Br	-4.660587	1.821483	-2.184657
Br	-4.660587	-1.821483	-2.184657
Br	-1.821483	-2.184657	-4.660587
Br	1.821483	-2.184657	-4.660587
Br	-1.821483	2.184657	-4.660587
Br	1.821483	2.184657	-4.660587
Br	-2.184657	4.660587	-1.821483
Br	-2.184657	4.660587	1.821483
Br	-2.184657	-4.660587	1.821483
Br	-2.184657	-4.660587	-1.821483
Br	-4.660587	1.821483	2.184657
Br	-4.660587	-1.821483	2.184657
