   Content of the .dal input file
 ----------------------------------

**DALTON INPUT
.DIRECT
.RUN WAVE FUNCTION
**WAVE FUNCTIONS
.CC
*CC INPUT
.CC2
.MAXRED
300
*ORBITAL INPUT
.PUNCHOUTORBITALS
**END OF DALTON INPUT


   Content of the .mol file
 ----------------------------

ATOMBASIS
Generated by Dalton Project

Atomtypes=3 Charge=0 Generators=2 X Y Angstrom
Charge=6.0 Atoms=3 Basis=STO-3G
C      0.000000    -1.197637    -0.701734
C      0.000000    -1.145417     0.693006
C      0.000000     0.000000    -1.415900
Charge=1.0 Atoms=3 Basis=STO-3G
H      0.000000    -2.156804    -1.212053
H      0.000000    -2.061947     1.280540
H      0.000000     0.000000    -2.503073
Charge=7.0 Atoms=1 Basis=STO-3G
N      0.000000     0.000000     1.398611


            Total SCF   energy:                  -243.6379998779
            Total MP2   energy:                  -243.9889166122
            Total CC2   energy:                  -243.9903563569
