18

C	1.270075	0.733278	0.22835
C	-1.270075	0.733278	0.22835
C	0	-1.466556	0.22835
C	1.270075	-0.733278	-0.22835
C	-1.270075	-0.733278	-0.22835
C	0	1.466556	-0.22835
H	1.331449	0.768712	1.324076
H	-1.331449	0.768712	1.324076
H	0	-1.537425	1.324076
H	1.331449	-0.768712	-1.324076
H	-1.331449	-0.768712	-1.324076
H	0	1.537425	-1.324076
H	2.160326	1.247265	-0.14891
H	-2.160326	1.247265	-0.14891
H	0	-2.49453	-0.14891
H	2.160326	-1.247265	0.14891
H	-2.160326	-1.247265	0.14891
H	0	2.49453	0.14891
