
   Content of the .dal input file
 ----------------------------------

**DALTON INPUT
.RUN WAVE FUNCTIONS
**WAVE FUNCTIONS
.HF
.CI
*CI INPUT
.CINO
*CONFIGURATION INPUT
.INACTIVE
 0
.RAS1 SPACE
 1
.RAS2 SPACE
 0
.RAS3 SPACE
 4
.SYMMETRY
 1
.ELECTRONS
 2
.RAS1 HOLES
 0 2
.RAS3 ELECTRONS
 0 2
**END OF DALTON INPUT


   Content of the .mol file
 ----------------------------

ATOMBASIS


Atomtypes=1 Charge=0 NoSymmetry
Charge=2 Atoms=1 Basis=cc-pVDZ
He 0 0 0


@    Spin multiplicity and 2 M_S                1         0
@    Total number of symmetries                 1 (point group: C1 )
@    Reference state symmetry                   1 (irrep name : A  )


 Symmetry 1  ( A  ) -- Total occupation in this symmetry is   2.000000000

   1.985492101   0.008323780   0.002061373   0.002061373   0.002061373

 GETNO: the orbital coefficients are transformed to natural orbitals.
