30

C	1.2044	0	-0.602948
C	0.37218	-1.145452	-0.602948
C	-0.97438	-0.707929	-0.602948
C	-0.97438	0.707929	-0.602948
C	0.37218	1.145452	-0.602948
C	2.480979	0	-0.0725
C	0.766665	-2.359552	-0.0725
C	-2.007154	-1.458283	-0.0725
C	-2.007154	1.458283	-0.0725
C	0.766665	2.359552	-0.0725
C	2.980826	-1.309268	0.283306
C	-0.324062	-3.23952	0.283306
C	-3.181107	-0.692865	0.283306
C	-1.64197	2.811305	0.283306
C	2.166314	2.430348	0.283306
C	2.980826	1.309268	0.283306
C	2.166314	-2.430348	0.283306
C	-1.64197	-2.811305	0.283306
C	-3.181107	0.692865	0.283306
C	-0.324062	3.23952	0.283306
H	3.998159	-1.410006	0.647966
H	-0.105496	-4.238191	0.647966
H	-4.06336	-1.20934	0.647966
H	-2.405798	3.490778	0.647966
H	2.576495	3.36676	0.647966
H	3.998159	1.410006	0.647966
H	2.576495	-3.36676	0.647966
H	-2.405798	-3.490778	0.647966
H	-4.06336	1.20934	0.647966
H	-0.105496	4.238191	0.647966
