
   Content of the .dal input file
 ----------------------------------

**DALTON INPUT
.RUN WAVE FUNCTIONS
**WAVE FUNCTIONS
.HF
*ORBITAL INPUT
.PUNCHOUTORBITALS
**END OF DALTON INPUT


   Content of the .mol file
 ----------------------------

ATOMBASIS


Atomtypes=1 Charge=0
Charge=2 Atoms=1 Basis=cc-pVDZ
He 0 0 0

@    Abelian symmetry species          All |    1    2    3    4    5    6    7    8
@                                          |  Ag   B3u  B2u  B1g  B1u  B2g  B3g  Au
                                       --- |  ---  ---  ---  ---  ---  ---  ---  ---
@    Total number of orbitals            5 |    2    1    1    0    1    0    0    0
@    Number of basis functions           5 |    2    1    1    0    1    0    0    0


 Sym       Hartree-Fock orbital energies

1 Ag     -0.91414794     1.39744169

2 B3u     2.52437201

3 B2u     2.52437201

5 B1u     2.52437201

    E(LUMO) :     1.39744169 au (symmetry 1)
