24

C	-0.7282	0	-0.383949
C	0.7282	0	-0.383949
C	-1.421229	0	0.860718
C	1.421229	0	0.860718
C	-0.678246	0	2.086997
C	0.678246	0	2.086997
H	-1.228909	0	3.021874
H	1.228909	0	3.021874
C	-1.498113	0	-1.568651
C	1.498113	0	-1.568651
C	-2.833879	0	0.872578
C	2.833879	0	0.872578
C	-2.877819	0	-1.531727
C	2.877819	0	-1.531727
C	-3.555741	0	-0.300985
C	3.555741	0	-0.300985
H	-1.005447	0	-2.532318
H	1.005447	0	-2.532318
H	-3.345141	0	1.829684
H	3.345141	0	1.829684
H	-3.4405	0	-2.458485
H	3.4405	0	-2.458485
H	-4.639582	0	-0.277263
H	4.639582	0	-0.277263
