10

C	0.610726	-0.396515	0
C	-0.610726	0.396515	0
C	1.844526	0.118392	0
C	-1.844526	-0.118392	0
H	0.48315	-1.477264	0
H	-0.48315	1.477264	0
H	2.010854	1.191113	0
H	-2.010854	-1.191113	0
H	2.724811	-0.513136	0
H	-2.724811	0.513136	0
