26

C	1.57338	0	0
C	-1.57338	0	0
C	0.626492	1.127641	0.473176
C	-0.626492	1.127641	-0.473176
C	0.626492	-1.127641	-0.473176
C	-0.626492	-1.127641	0.473176
C	-0.208597	0.750454	-1.911197
C	0.208597	-0.750454	-1.911197
C	0.208597	0.750454	1.911197
C	-0.208597	-0.750454	1.911197
H	1.117403	2.104532	0.451001
H	-1.117403	2.104532	-0.451001
H	1.117403	-2.104532	-0.451001
H	-1.117403	-2.104532	0.451001
H	2.227319	-0.314937	0.818206
H	-2.227319	0.314937	0.818206
H	2.227319	0.314937	-0.818206
H	-2.227319	-0.314937	-0.818206
H	-1.040984	0.920989	-2.600505
H	1.040984	-0.920989	-2.600505
H	1.040984	0.920989	2.600505
H	-1.040984	-0.920989	2.600505
H	0.615667	1.385204	-2.251327
H	-0.615667	-1.385204	-2.251327
H	-0.615667	1.385204	2.251327
H	0.615667	-1.385204	2.251327
